<svg xmlns="http://www.w3.org/2000/svg" width="1360" height="241" viewBox="0 0 1360 241">
  <defs>
    <style>
      .cls-1 {
        fill-rule: evenodd;
        opacity: 0.34;
      }
    </style>
  </defs>
  <path class="cls-1" d="M679-681L2288-220,679,241-930-220Z"/>
</svg>
